﻿
[{
        "_id": "c-05",
        "_parentId": "b-05",
        "_type": "component",
        "_component": "text",
        "_classes": "",
        "_layout": "full",
        "title": "مقدمة",
        "displayTitle": "",
        "body": "تم تصميم المزاد الإعلاني على فيسبوك لتعظيم القيمة التي يحصل عليها المعلن وتحسين تجربة الاستخدام للجماهير على فيسبوك وInstagram وAudience Network. <br><br>بوجه عام، نحاول عرض إعلاناتك بوتيرة واحدة على مدار اليوم لتزيد احتمالات رؤية إعلاناتك من قبل الأشخاص الذين يشكلون أعلى قيمة بين جمهورك المستهدف.  <br><br>بوجه عام، كلما توقعنا أن الإعلان سيكون أكثر ملاءمة للشخص، تنخفض التكلفة التي يتحملها المعلن لعرض الإعلان أمام هذا الشخص.",
        "instruction": "",
        "_pageLevelProgress": {
            "_isEnabled": true
        }
    },
    {
        "_id": "c-10",
        "_parentId": "b-05",
        "_type": "component",
        "_component": "canvas-animation",
        "_classes": "",
        "_layout": "full",
        "title": "الميزان",
        "displayTitle": "",
        "animationName": "WeightScale",
        "animation": "course/en/animations/weightScale/weight_scale.js",
        "body": "<div id='WeightScale'></div>",
        "_resources": {
            "base": "course/en/animations/weightScale/balance_base.png",
            "arm": "course/en/animations/weightScale/balance_bar.png",
            "plate": "course/en/animations/weightScale/balance_plate.png",
            "rightText": "تحسين\nتجربة\nالمستهلك",
            "leftText": "تحقيق\nأقصى قيمة\nللمعلن"
        },
        "instruction": "",
        "_pageLevelProgress": {
            "_isEnabled": false
        }
    },
    {
        "_id": "c-15",
        "_parentId": "b-10",
        "_type": "component",
        "_component": "text",
        "_classes": "",
        "_layout": "full",
        "title": "أهداف التعلم",
        "displayTitle": "",
        "body": "بعد إكمال هذه الدورة التدريبية، يمكنك:<br><br><ul><li>معرفة كيفية حساب عرض أسعارك.</li><li>فهم كيفية الفوز بفرصة إعلانية في المزاد الإعلاني.</li><li>فهم كيفية عرض إعلاناتك للأشخاص على مدار اليوم.</li><li>فهم العوامل التي تؤثر في عرض الإعلانات.</li></ul>",
        "instruction": "",
        "_pageLevelProgress": {
            "_isEnabled": true
        }
    },
    {
        "_id": "c-16",
        "_parentId": "b-10",
        "_type": "component",
        "_component": "co-jump",
        "_classes": "color-test",
        "_preLinkBody": "لنبدأ بتناول ",
        "_linkBody": "أساسيات المزادات الإعلانية على فيسبوك",
        "_postLinkBody": ".",
        "_link": "#/id/co-10",
        "_graphic": "adapt/css/assets/icon_nextPage.png",
        "_pageLevelProgress": {
            "_isEnabled": false
        }
    },
    {
        "_id": "c-20",
        "_parentId": "b-15",
        "_type": "component",
        "_component": "graphic",
        "_classes": "",
        "_layout": "full",
        "title": "عملية المزاد الإعلاني وأمثلة عليها",
        "displayTitle": "عملية المزاد الإعلاني وأمثلة عليها",
        "body": "تبلغ سالي من العمر 25 عامًا وتعيش في واشنطن. تبدأ سالي يومها كل صباح بفتح فيسبوك.",
        "instruction": "",
        "_graphic": {
            "alt": "نص بديل",
            "title": "نص العنوان",
            "large": "course/en/images/02_facebook_auction_basics/person_comes_to_facebook.jpg",
            "medium": "course/en/images/02_facebook_auction_basics/person_comes_to_facebook.jpg",
            "small": "course/en/images/02_facebook_auction_basics/person_comes_to_facebook.jpg"
        },
        "_pageLevelProgress": {
            "_isEnabled": true
        }
    },
    {
        "_id": "c-21",
        "_parentId": "b-15",
        "_type": "component",
        "_component": "graphic",
        "_classes": "",
        "_layout": "full",
        "title": "أساسيات مزاد فيسبوك",
        "displayTitle": "",
        "body": "يريد آلاف المعلنين عرض الإعلانات أمام أشخاص مثل سالي أثناء تصفحها لآخر الأخبار - أي أمام إناث بعمر 25 عامًا ممن يعيشون في واشنطن، وهكذا.",
        "instruction": "",
        "_graphic": {
            "alt": "نص بديل",
            "title": "نص العنوان",
            "large": "course/en/images/02_facebook_auction_basics/ads_targeting.jpg",
            "medium": "course/en/images/02_facebook_auction_basics/ads_targeting.jpg",
            "small": "course/en/images/02_facebook_auction_basics/ads_targeting.jpg"
        },
        "_pageLevelProgress": {
            "_isEnabled": true
        }
    },
    {
        "_id": "c-22",
        "_parentId": "b-15",
        "_type": "component",
        "_component": "graphic",
        "_classes": "",
        "_layout": "full",
        "title": "يقيم فيسبوك مزادًا",
        "displayTitle": "",
        "body": "يقيم فيسبوك مزادًا يأخذ في الحسبان عروض الأسعار التي يقدمها كل معلن من المعلنين للفوز بفرصة ظهور إعلانه أمام أشخاص مثل سالي. وبدورنا نفكر أيضًا في نظرة سالي لمدى ملاءمة وأهمية إعلانات هؤلاء المعلنين بالنسبة لها، ومدى احتمال اتخاذها لإجراء مثل النقر أو الشراء بعد رؤية الإعلان.",
        "instruction": "",
        "_graphic": {
            "alt": "نص بديل",
            "title": "نص العنوان",
            "large": "course/en/images/02_facebook_auction_basics/ranking.jpg",
            "medium": "course/en/images/02_facebook_auction_basics/ranking.jpg",
            "small": "course/en/images/02_facebook_auction_basics/ranking.jpg"
        },
        "_pageLevelProgress": {
            "_isEnabled": true
        }
    },
    {
        "_id": "c-23",
        "_parentId": "b-15",
        "_type": "component",
        "_component": "graphic",
        "_classes": "",
        "_layout": "full",
        "title": "الاعتبارات",
        "displayTitle": "",
        "body": "استنادًا إلى كل هذه الاعتبارات، يحدد فيسبوك المعلن الذي يفوز بهذا المزاد.",
        "instruction": "",
        "_graphic": {
            "alt": "نص بديل",
            "title": "نص العنوان",
            "large": "course/en/images/02_facebook_auction_basics/winner.jpg",
            "medium": "course/en/images/02_facebook_auction_basics/winner.jpg",
            "small": "course/en/images/02_facebook_auction_basics/winner.jpg"
        },
        "_pageLevelProgress": {
            "_isEnabled": true
        }
    },
    {
        "_id": "c-24",
        "_parentId": "b-15",
        "_type": "component",
        "_component": "graphic",
        "_classes": "",
        "_layout": "full",
        "title": "الإعلان الفائز",
        "displayTitle": "",
        "body": "في النهاية، يعرض فيسبوك الإعلان الفائز أمام سالي في آخر الأخبار.",
        "instruction": "",
        "_graphic": {
            "alt": "نص بديل",
            "title": "نص العنوان",
            "large": "course/en/images/02_facebook_auction_basics/calculate_price.jpg",
            "medium": "course/en/images/02_facebook_auction_basics/calculate_price.jpg",
            "small": "course/en/images/02_facebook_auction_basics/calculate_price.jpg"
        },
        "_pageLevelProgress": {
            "_isEnabled": true
        }
    },
    {
        "_id": "c-27",
        "_parentId": "b-15",
        "_type": "component",
        "_component": "text",
        "_classes": "",
        "_layout": "full",
        "title": "عملية مشابهة",
        "displayTitle": "",
        "body": "تحدث عملية مشابهة كل مرة يرى شخص ما إعلانًا على فيسبوك.<br><br>ويعمل المزاد الإعلاني بنفس الطريقة مع إعلانات Instagram وAudience Network.",
        "instruction": "",
        "_pageLevelProgress": {
            "_isEnabled": true
        }
    },
    {
        "_id": "c-35",
        "_parentId": "b-20",
        "_type": "component",
        "_component": "text",
        "_classes": "",
        "_layout": "full",
        "title": "المزادات الإعلانية على فيسبوك مقارنة بالمزادات الأخرى",
        "displayTitle": "المزادات الإعلانية على فيسبوك مقارنة بالمزادات الأخرى",
        "body": "اليوم، يمكن للمعلنين استخدام عرض الأسعار لإخبارنا بالقيمة التقديرية التي يرونها للنتيجة المحددة. بعدها يستخدم المزاد عرض الأسعار الذي قدمه المعلن لتحسين الإعلان من أجل تحقيق النتيجة المحددة. وعادة ما يكون عرض الأسعار هو أقصى مبلغ يمكن دفعه للحصول على النتيجة المطلوبة - وأحيانًا، يدفع المعلن أقل من مبلغ عرض الأسعار الذي قدمه!<br><br>يعمل المزاد الإعلاني على فيسبوك بهذه الطريقة لأننا قمنا بتطويره استنادًا إلى نموذج Vickrey-Clarke-Groves للمزادات.  وهو مزاد متوافق مع نظام الحافز، أي أن المعلن إذا قدم عرض أسعار بالقيمة الحقيقية للإجراء الذي يتم تحسين الإعلان من أجله، فقد يساعد ذلك على زيادة عائد الاستثمار لأقصى درجة.",
        "instruction": "",
        "_pageLevelProgress": {
            "_isEnabled": true
        }
    },
    {
        "_id": "c-40",
        "_parentId": "b-22",
        "_type": "component",
        "_component": "co-jump",
        "_classes": "color-test",
        "_preLinkBody": "الآن، سنلقي نظرة على ",
        "_linkBody": "كيفية حساب عرض أسعارك",
        "_postLinkBody": ".",
        "_link": "#/id/co-15",
        "_graphic": "adapt/css/assets/icon_nextPage.png",
        "_pageLevelProgress": {
            "_isEnabled": false
        }
    },
    {
        "_id": "c-45",
        "_parentId": "b-25",
        "_type": "component",
        "_component": "text",
        "_classes": "",
        "_layout": "full",
        "title": "الإعلان في المزاد الإعلاني على فيسبوك",
        "displayTitle": "",
        "body": "عندما يدخل إعلانك إلى المزاد الإعلاني على فيسبوك، فإنه يتنافس مع الإعلانات الأخرى التي تستهدف الأشخاص ضمن جمهورك المستهدف.  وكما يحدث مع كل المحتوى المقدم على فيسبوك وInstagram وAudience Network، نريد التأكد من عرض المحتوى المناسب أمام الشخص المناسب في الوقت المناسب.  كما نهدف أيضًا إلى تحسين تجربة المستخدم بتقليل عدد الإعلانات التي تظهر في آخر الأخبار لديه، ولذلك فإنك كمعلن تتنافس على عدد محدود من المساحات الإعلانية.  <br><br>على سبيل المثال، قد يتنافس محل لبيع الزهور ومطعم في منطقة واحدة لعرض إعلانات الوعي المحلي للأشخاص أنفسهم خلال الأسابيع التي تسبق عيد الحب. لنفترض أن سالي ضمن الجمهور المستهدف لإعلانات Jasper's Market وCafe Escape. تلتقط سالي هاتفها، وتتصفح آخر أخبار فيسبوك ويتم استهدافها لتشاهد إعلانًا. يتنافس المعلنون ومن بينهم Jasper's وCafe Escape على هذه المساحة الإعلانية من خلال تقديم \"عرض أسعار إجمالي\"، وهو ما يحدد الإعلان الذي يتم عرضه أمام سالي والمبلغ الذي سيدفعه المعلن الفائز مقابل عرض إعلانه.",
        "instruction": "",
        "_pageLevelProgress": {
            "_isEnabled": true
        }
    },
    {
        "_id": "c-46",
        "_parentId": "b-25",
        "_type": "component",
        "_component": "canvas-animation",
        "_classes": "",
        "_layout": "full",
        "title": "ترتيب الإعلان",
        "displayTitle": "",
        "animationName": "AdRanking",
        "animation": "course/en/animations/adRanking/adRanking.js",
        "body": "<div id='AdRanking'></div>",
        "_resources": {
            "background": "course/en/animations/adRanking/background.png",
            "money": "course/en/animations/adRanking/money.png",
            "paper": "course/en/animations/adRanking/paper.png",
            "star": "course/en/animations/adRanking/star.png",
            "trophy": "course/en/animations/adRanking/trophy.png",
            "lines": "course/en/animations/adRanking/lines.png",
            "rightText": "نقاط الملاءمة",
            "leftText": "عروض الأسعار",
            "topText": "الموضع",
            "footerText": "ترتيب إعلانات فيسبوك"
        },
        "instruction": "",
        "_pageLevelProgress": {
            "_isEnabled": true
        }
    },
    {
        "_id": "c-47",
        "_parentId": "b-25",
        "_type": "component",
        "_component": "text",
        "_classes": "",
        "_layout": "full",
        "title": "عرض الأسعار المحسوب",
        "displayTitle": "",
        "body": "يتم حساب عرض الأسعار الإجمالي باستخدام المدخلات التالية:<br><br><ul><li>عرض الأسعار الذي حددته</li><li>مدى توقعنا لاتخاذ الأشخاص ضمن جمهورك المستهدف إجراءات بعد مشاهدة إعلانك</li><li>مدى توقعنا لملاءمة الإعلان للأشخاص ضمن جمهورك المستهدف</li></ul><br>كمعلن، يمكنك التحسين لتحقيق نتائج مختلفة، مثل النقرات أو مرات الظهور أو عمليات التثبيت أو التحويلات أو الوصول.  ومن خلال عرض أسعارك، فإنك تخبرنا بالسعر الذي تريد دفعه مقابل قيام شخص ضمن جمهورك المستهدف بتحقيق هذه النتيجة.",
        "instruction": "",
        "_pageLevelProgress": {
            "_isEnabled": true
        }
    },
    {
        "_id": "c-50",
        "_parentId": "b-30",
        "_type": "component",
        "_component": "text",
        "_classes": "",
        "_layout": "full",
        "title": "كيفية حساب عرض الأسعار الإجمالي",
        "displayTitle": "كيفية حساب عرض الأسعار الإجمالي",
        "body": "تتنافس الإعلانات داخل المزاد فيما بينها من خلال عرض أسعار إجمالي نقوم بحسابه استنادًا إلى العديد من العوامل، والتي تتضمن عرض الأسعار الذي قدمته عند إعداد إعلانك، وتوقعاتنا لتفاعل جمهورك مع الإعلان ومدى ملاءمة الإعلان لهم من وجهة نظرهم.",
        "instruction": "",
        "_pageLevelProgress": {
            "_isEnabled": true
        }
    },
    {
        "_id": "c-51",
        "_parentId": "b-30",
        "_type": "component",
        "_component": "graphic",
        "_classes": "",
        "_layout": "full",
        "title": "رسم توضيحي للمعادلة",
        "displayTitle": "",
        "body": "",
        "_graphic": {
            "alt": "",
            "title": "",
            "large": "course/en/images/04_budget_pacing/equation.jpg",
            "medium": "course/en/images/04_budget_pacing/equation.jpg",
            "small": "course/en/images/04_budget_pacing/equation.jpg"
        },
        "instruction": "",
        "_pageLevelProgress": {
            "_isEnabled": true
        }
    },
    {
        "_id": "c-52",
        "_parentId": "b-30",
        "_type": "component",
        "_component": "text",
        "_classes": "",
        "_layout": "full",
        "title": "عرض أسعار المعلن",
        "displayTitle": "",
        "body": "<ul><li><b>عرض أسعار المعلن (عرض أسعار التكلفة الفعالة لكل ألف ظهور)</b> - ننظر إليه كمؤشر للقيمة التي يراها المعلن للنتيجة المرجوة عند تحقيقها بواسطة شخص ضمن جمهوره المستهدف. ويمكنك تقديم عرض الأسعار بعدة طرق. على سبيل المثال، يمكنك اختيار التحسين من أجل الإجراءات أو مرات الظهور، والدفع مقابل الإجراءات أو مرات الظهور. يمكنك أيضًا التحسين من أجل النقرات أو عمليات تثبيت التطبيق أو التحويلات أو الوصول على سبيل المثال لا الحصر. لكننا في النهاية نقوم بتحويل عروض الأسعار كلها إلى عرض أسعار التكلفة الفعالة لكل ألف ظهور حتى يمكننا ترتيب عروض الأسعار ومقارنتها.</li><br><li><b>ملاءمة الإعلان</b> - نحاول دائمًا في فيسبوك وInstagram وAudience Network توفير أفضل التجارب وأكثرها إثارة للمستخدمين على منصاتنا. لذلك فنحن نأخذ \"الاهتمام\" المتوقع، أو الملاءمة، في الحسبان عند تحديد الإعلان الذي سيفوز بالمزاد. وتختص ملاءمة الإعلان بأمور من قبيل التفاعل المتوقع (على سبيل المثال: النقرات)، والملاحظات الإيجابية المتوقعة (على سبيل المثال: تسجيلات الإعجاب والمشاركات)، والملاحظات السلبية المتوقعة (على سبيل المثال: إخفاء الإعلان) - والتي يبديها الأشخاص ضمن جمهورك المستهدف. ومع الاستمرار في تحسين خوارزمياتنا، ستظل قائمة العوامل هذه تتطور. سنتحدث أكثر عن هذه العوامل المؤثرة في وحدة ملاءمة الإعلان.</li></ul>",
        "instruction": "",
        "_pageLevelProgress": {
            "_isEnabled": true
        }
    },
    {
        "_id": "c-56",
        "_parentId": "b-35",
        "_type": "component",
        "_component": "text",
        "_classes": "",
        "_layout": "full",
        "title": "طريقة حساب عرض الأسعار",
        "displayTitle": "",
        "body": "<h2>طريقة حساب عرض الأسعار للأهداف المختلفة:</h2><br><br><div style='max-width:750px;text-align:center;padding-left:90px;'><i>عند التحسين من أجل مرات الظهور أو الوصول والدفع مقابل مرات الظهور (التكلفة لكل ألف ظهور) ...</i><br><font color='#808080'>عرض الأسعار الإجمالي = [ عرض أسعار التكلفة لكل ألف ظهور] +&#160;[ ملاءمة الإعلان&#160;وعوامل&#160;الجودة] </font><br><br><br><i>عند التحسين والدفع مقابل النقرات (التكلفة لكل نقرة) </i> ... <br><font color='#808080'>عرض الأسعار الإجمالي = [(عرض أسعار التكلفة لكل نقرة) x (نسبة النقر إلى الظهور المتوقعة × 1000] + [ملاءمة الإعلان وعوامل الجودة] </font><br><br><br><i>عند التحسين من أجل مرات الظهور والدفع مقابل الإجراءات * (التكلفة لكل إجراء) أو مرات الظهور (التكلفة المحسنة لكل ألف ظهور) ...</i><br><font color='#808080'>عرض الأسعار الإجمالي = [(عرض أسعار التكلفة لكل إجراء أو التكلفة المحسنة لكل ألف ظهور) x (نسبة النقر إلى الظهور أو نسبة النقر إلى الظهور المتوقعة) x (احتمال التحويل) × 1000]&#160;+&#160;ملاءمة الإعلان وعوامل&#160;الجودة] </font></div><br><br><cite><sup>*</sup>* قد تضم الإجراءات مشاهدات الفيديو وعمليات تثبيت تطبيقات الهواتف المحمولة وتحويلات موقع الويب والنقرات على الروابط والتفاعل مع منشور الصفحة.</cite>",
        "instruction": "",
        "_pageLevelProgress": {
            "_isEnabled": true
        }
    },
    {
        "_id": "c-60",
        "_parentId": "b-40",
        "_type": "component",
        "_component": "text",
        "_classes": "",
        "_layout": "full",
        "title": "التسعير",
        "displayTitle": "التسعير",
        "body": "عبر فيسبوك وInstagram وAudience Network، تهدف منصاتنا إلى عرض أكثر الإعلانات ملاءمة للأشخاص.  كلما توقعنا أن الإعلان سيكون أكثر ملاءمة للشخص، تنخفض التكلفة التي يتحملها المعلن لعرض الإعلان أمام هذا الشخص، مع تساوي باقي الأمور.<br><br>بعد فوز الإعلان في المزاد، يتم تحديد السعر المدفوع للإعلان الفائز على أساس القيمة المفقودة من <i>كل</i> المعلنين الذين لم يتم عرض إعلاناتهم - وليس فقط عرض أسعار المعلن صاحب المرتبة الثانية.  ونحن نحدد هذه القيمة المفقودة استنادًا إلى عروض أسعار هؤلاء المعلنين. ولأن سعرك يستند إلى القيمة المفقودة من كل المعلنين الذين تفوقت عليهم، وليس مقدم عرض أسعار واحد فقط، فإن ذلك يؤدي إلى تقليل قدرة الأشخاص على \"التلاعب\" بالمزاد من خلال محاولة إقصاء أي مقدم لعروض الأسعار.",
        "instruction": "",
        "_pageLevelProgress": {
            "_isEnabled": true
        }
    },
    {
        "_id": "c-63",
        "_parentId": "b-40",
        "_type": "component",
        "_component": "text",
        "_classes": "",
        "_layout": "full",
        "title": "تصميم المزاد الإعلاني على فيسبوك",
        "displayTitle": "",
        "body": "تم تصميم المزاد الإعلاني على فيسبوك لتشجيع تقديم عروض الأسعار الحقيقية. وإذا قدم المعلن القيمة الحقيقية للنتيجة المطلوبة، فإنه على الأرجح يحقق أفضل عائد استثماري ممكن.",
        "instruction": "",
        "_pageLevelProgress": {
            "_isEnabled": true
        }
    },
    {
        "_id": "c-64",
        "_parentId": "b-40",
        "_type": "component",
        "_component": "co-jump",
        "_classes": "color-test",
        "_preLinkBody": "الآن بعد تكوين فهم أفضل عن كيفية حساب عرض الأسعار، سنلقي نظرة على ",
        "_linkBody": "توزيع الميزانية",
        "_postLinkBody": ".",
        "_link": "#/id/co-20",
        "_graphic": "adapt/css/assets/icon_nextPage.png",
        "_pageLevelProgress": {
            "_isEnabled": false
        }
    },
    {
        "_id": "c-65",
        "_parentId": "b-45",
        "_type": "component",
        "_component": "text",
        "_classes": "",
        "_layout": "full",
        "title": "عرض إعلاناتك",
        "displayTitle": "",
        "body": "افتراضيًا، يعمل فيسبوك وInstagram وAudience Network على عرض إعلاناتك للأشخاص ضمن جمهورك المستهدف بشكل متساوٍ طوال اليوم. ونقوم بهذا الأمر حتى نتمكن من عرض إعلانك على الأشخاص الذين يهمونك طوال فترة عرض حملتك الإعلانية بدلاً من استنزاف ميزانيتك خلال بضع ساعات. وهو ما يضمن أنه بغض النظر عن موعد تصفح الأشخاص لفيسبوك وInstagram وAudience Network خلال اليوم، يمكننا تحديد ما إذا كان عرض الإعلان أمامهم سيساعد على تحقيق أهداف حملتك الإعلانية أم لا.<br><br>أحيانًا، لأسباب معينة، <i>يريد</i> المعلنون إنفاق ميزانياتهم بأسرع ما يمكن، ونحن نوفر هذا الخيار أيضًا.",
        "instruction": "",
        "_pageLevelProgress": {
            "_isEnabled": true
        }
    },

    {
        "_id": "c-66",
        "_parentId": "b-45",
        "_type": "component",
        "_component": "graphic",
        "_classes": "",
        "_layout": "left",
        "title": "العرض القياسي",
        "displayTitle": "",
        "body": "<b>العرض القياسي</b>",
        "instruction": "",
        "_graphic": {
            "alt": "نص بديل",
            "title": "نص العنوان",
            "large": "course/en/images/04_budget_pacing/standard_delivery.jpg",
            "medium": "course/en/images/04_budget_pacing/standard_delivery.jpg",
            "small": "course/en/images/04_budget_pacing/standard_delivery.jpg"
        }
    },
    {
        "_id": "c-6616",
        "_parentId": "b-45",
        "_type": "component",
        "_component": "graphic",
        "_classes": "",
        "_layout": "right",
        "title": "العرض السريع",
        "displayTitle": "",
        "body": "<b>العرض السريع</b>",
        "instruction": "",
        "_graphic": {
            "alt": "نص بديل",
            "title": "نص العنوان",
            "large": "course/en/images/04_budget_pacing/accelerated_delivery.jpg",
            "medium": "course/en/images/04_budget_pacing/accelerated_delivery.jpg",
            "small": "course/en/images/04_budget_pacing/accelerated_delivery.jpg"
        }
    },
    {
        "_id": "c-67",
        "_parentId": "b-46",
        "_type": "component",
        "_component": "co-jump",
        "_classes": "color-test",
        "_preLinkBody": "الآن، سنلقي نظرة على ",
        "_linkBody": "ملاءمة الإعلان",
        "_postLinkBody": ".",
        "_link": "#/id/co-25",
        "_graphic": "adapt/css/assets/icon_nextPage.png",
        "_pageLevelProgress": {
            "_isEnabled": false
        }
    },
    {
        "_id": "c-70",
        "_parentId": "b-50",
        "_type": "component",
        "_component": "text",
        "_classes": "",
        "_layout": "full",
        "title": "المزاد الإعلاني على فيسبوك",
        "displayTitle": "",
        "body": "يعمل المزاد الإعلاني على فيسبوك على تحسين الإعلانات من أجل عرض أكثر محتوى مناسب وجاذب للتفاعل أمام الأشخاص المناسبين. علاوة على ذلك، فهو يهدف أيضًا إلى تعظيم النتائج التي يريد المعلن تحقيقها من خلال الميزانية التي يحددها.",
        "instruction": "",
        "_pageLevelProgress": {
            "_isEnabled": true
        }
    },
    {
        "_id": "c-71",
        "_parentId": "b-50",
        "_type": "component",
        "_component": "animate-message",
        "_classes": "",
        "_layout": "full",
        "title": "نسب النقر إلى الظهور",
        "displayTitle": "",
        "body": "",
        "instruction": "",
        "titleAnimation": "transition.slideRightIn",
        "bodyAnimation": "transition.slideRightIn",
        "backgroundColor": "#daecfd,#eafbde",
        "_pageLevelProgress": {
            "_isEnabled": true

        },
        "_items": [{
                "item_title": "<div style='padding:10px;'><b>نسبة النقر إلى الظهور المتوقعة = eCTR</b></div>",
                "body": ""
            },
            {
                "item_title": "<div style='padding:10px;'><b>نسبة التحويلات المتوقعة = eCVR</b></div>",
                "body": ""
            }
        ]
    },
    {
        "_id": "c-72",
        "_parentId": "b-50",
        "_type": "component",
        "_component": "text",
        "_classes": "",
        "_layout": "full",
        "title": "نسبة النقر إلى الظهور",
        "displayTitle": "",
        "body": "تذكر أن نسبة النقر إلى الظهور المتوقعة (eCTR) تلعب دورًا في حساب عرض الأسعار الإجمالي. عندما تكون نسبة النقر إلى الظهور المتوقعة مرتفعة (ونسبة التحويلات المتوقعة، في حالة التحسين من أجل الإجراءات بخلاف النقرات) فإنها تساعد إعلانك داخل المزاد.  قد تتأثر هذه التوقعات بعدة عوامل، ومن بينها سجل الإعلان، وسجل المجموعة الإعلانية، وسجل الحملة الإعلانية، وسمات المستخدم، ونوع الصفحة، والنشاط الذي يتم على الإعلان المحدد.",
        "instruction": "",
        "_pageLevelProgress": {
            "_isEnabled": true
        }
    },
    {
        "_id": "c-75",
        "_parentId": "b-55",
        "_type": "component",
        "_component": "graphic",
        "_classes": "",
        "_layout": "full",
        "title": "قد يؤدي تحديد أهداف تحسين مختلفة إلى الوصول لأشخاص مختلفين",
        "displayTitle": "قد يؤدي تحديد أهداف تحسين مختلفة إلى الوصول لأشخاص مختلفين",
        "body": "وإليك مثال يوضح كيفية عرض الإعلانات لأشخاص مختلفين عند تحديد أهداف تحسين مختلفة:<br><br>لنفترض أن رجالاً تزيد أعمارهم عن 30 عامًا في الولايات المتحدة قد نقروا على العديد من إعلانات ساعات SMART! وأتموا عملية التحويل. ولأن ريتشارد ذكر يزيد عمره عن 30 عامًا، ترى خوارزمياتنا أنه من المحتمل أن ينقر أيضًا على إعلان ساعات SMART! هذا ويكمل عملية التحويل.  لذلك نتوقع ارتفاع نسبة النقر إلى الظهور المتوقعة/نسبة التحويلات المتوقعة لريتشارد مقارنة بالأشخاص الآخرين ضمن جمهور ساعات SMART!.",
        "instruction": "",
        "_graphic": {
            "alt": "نص بديل",
            "title": "نص العنوان",
            "large": "course/en/images/05_ad_relevance/techie.png",
            "medium": "course/en/images/05_ad_relevance/techie.png",
            "small": "course/en/images/05_ad_relevance/techie.png"
        },
        "_pageLevelProgress": {
            "_isEnabled": true
        }
    },
    {
        "_id": "c-72221",
        "_parentId": "b-55",
        "_type": "component",
        "_component": "text",
        "_classes": "",
        "_layout": "full",
        "title": "نسبة النقر إلى الظهور",
        "displayTitle": "",
        "body": "وفقًا لما سبق، يمكن القول بأنه كلما زادت نسبة النقر إلى الظهور المتوقعة/نسبة التحويلات المتوقعة، زادت احتمالات فوز الإعلان بالمزاد.  <br><br>ونظرًا لارتفاع نسبة التحويل المتوقعة لدى ريتشارد لإعلان ساعات SMART!، فمن المرجح بشكل أكبر أن يظهر له هذا الإعلان في حالة تحسينه من أجل التحويلات.  <br><br>على الجانب الآخر، في حالة إعداد الإعلان ليقوم بالتحسين من أجل النقرات، فسيقوم النظام بالتحسين للأشخاص الأكثر احتمالاً للنقر، وليس التحويل بالضرورة. وقد نعرض الإعلان للأشخاص الذين ينقرون على الكثير من الأشياء التي يرونها على فيسبوك وInstagram وAudience Network - حتى وإن لم تكن احتمالات تحولهم مثل ريتشارد.<br><br>وبالتالي مَن الذي تريد التحسين من أجله؟</b>",
        "instruction": "",
        "_pageLevelProgress": {
            "_isEnabled": true
        }
    },
    {
        "_id": "c-76",
        "_parentId": "b-55",
        "_type": "component",
        "_component": "animation-card",
        "_classes": "",
        "_layout": "full",
        "title": "رسم توضيحي للملاءمة",
        "displayTitle": "",
        "body": "",
        "instruction": "",
        "animationStartDelay": "1",
        "titleAnimation": "transition.slideUpIn",
        "bodyAnimation": "transition.slideUpIn",
        "backgroundColor": "#f5f6f7,#f5f6f7,#f5f6f7",
        "_pageLevelProgress": {
            "_isEnabled": true

        },
        "_items": [{
            "body": "<img src='course/en/images/05_ad_relevance/different_results.png'/>"
        }]
    },
    {
        "_id": "c-80",
        "_parentId": "b-60",
        "_type": "component",
        "_component": "text",
        "_classes": "",
        "_layout": "full",
        "title": "<div style ='text-align:center';>نقاط الملاءمة</div>",
        "displayTitle": "نقاط الملاءمة",
        "body": "كما ذكرنا سابقًا في هذه الدورة التدريبية، تلعب ملاءمة الإعلان دورًا في نجاحه داخل المزاد.  أي أنه مع ثبات كافة العوامل الأخرى، إذا كانت ملاءمة الإعلان للأشخاص ضمن جمهورك المستهدف مرتفعة، فقد يقلل ذلك من التكلفة التي تتحملها مقابل كل هدف تحققه. وتذكر أن عرض الأسعار الإجمالي للإعلان داخل المزاد لا يعتمد على عرض أسعار المعلن فقط بل أيضًا على رؤيتنا لمدى ملاءمة الإعلان ومدى أهميته للأشخاص ضمن جمهورك المستهدف. وتذكر أيضًا أن العوامل التي نأخذها في الحسبان عند التوقع بمدى ملاءمة الإعلان لمستخدم فيسبوك أو Instagram أو Audience Network تتغير باستمرار مع قيامنا بتحسين تجربة المستخدم. <br>",
        "instruction": "",
        "_pageLevelProgress": {
            "_isEnabled": true
        }
    },
    {
        "_id": "c-81",
        "_parentId": "b-60",
        "_type": "component",
        "_component": "text",
        "_classes": "",
        "_layout": "left",
        "title": "قياس مستوى الأهمية",
        "displayTitle": "",
        "body": "<br><br><br>لمساعدتك على قياس درجة أهمية أو ملاءمة إعلانك المتوقعة بالنسبة للأشخاص ضمن جمهورك المستهدف مقارنة بالإعلانات الأخرى التي تستهدف نفس الأشخاص، نقدم لك أداة قياس في تقارير الإعلانات تعرف باسم نقاط الملاءمة.",
        "instruction": "",
        "_pageLevelProgress": {
            "_isEnabled": true
        }
    },
    {
        "_id": "c-82",
        "_parentId": "b-60",
        "_type": "component",
        "_component": "graphic",
        "_classes": "",
        "_layout": "right",
        "title": "صورة ملاءمة الإعلان",
        "displayTitle": "",
        "body": "",
        "instruction": "",
        "_graphic": {
            "alt": "نص بديل",
            "title": "نص العنوان",
            "large": "course/en/images/05_ad_relevance/ad_relevance_factors.png",
            "medium": "course/en/images/05_ad_relevance/ad_relevance_factors.png",
            "small": "course/en/images/05_ad_relevance/ad_relevance_factors.png"
        },
        "_pageLevelProgress": {
            "_isEnabled": true
        }
    },
    {
        "_id": "c-83",
        "_parentId": "b-60",
        "_type": "component",
        "_component": "text",
        "_classes": "",
        "_layout": "left",
        "title": "أوقات عرض الإعلان",
        "displayTitle": "",
        "body": "<br><br><br><br><br><br><br><br><br><br><br>بعد عرض إعلانك أكثر من 500 مرة، يحصل إعلانك على نقاط ملاءمة يومية من 1 (غير ملائم إلى درجة كبيرة) إلى 10 (ملائم إلى درجة كبيرة). توضح النقاط توقعنا لمدى ملاءمة إعلانك مقارنة بالإعلانات الأخرى الموجهة إلى جمهورك المستهدف في الوقت ذاته. يمكنك عرض النقاط في مدير الإعلانات عن طريق الانتقال إلى الحملات الإعلانية والضغط على الإعلانات.<br><br>",
        "instruction": "",
        "_pageLevelProgress": {
            "_isEnabled": true
        }
    },
    {
        "_id": "c-85",
        "_parentId": "b-65",
        "_type": "component",
        "_component": "text",
        "_classes": "",
        "_layout": "full",
        "title": "التوقعات",
        "displayTitle": "",
        "body": "يتم تحديد نقاط الملاءمة لإعلانك باستخدام مجموعة من العوامل من بينها الملاحظات الإيجابية والسلبية المتوقعة استنادًا إلى أداء الإعلان وما نعرفه عن الأشخاص ضمن جمهورك. ويتم احتسابها على نحو مختلف حسب الهدف الذي اخترته (على سبيل المثال، النقرات إلى مواقع الويب أو مشاهدات الفيديو).<br><br>للتعرف على المزيد عن نقاط الملاءمة وكيفية استخدامها لتحسين حملاتك الإعلانية، يرجى زيارة <a href='https://www.facebook.com/business/a/ads-relevance-score' target='_blank'>صفحة نقاط ملاءمة الإعلان</a> على فيسبوك للأعمال.",
        "instruction": "",
        "_pageLevelProgress": {
            "_isEnabled": true
        }
    },
    {
        "_id": "c-86",
        "_parentId": "b-65",
        "_type": "component",
        "_component": "co-jump",
        "_classes": "color-test",
        "_preLinkBody": "الآن بعد أن تعرفت على العوامل التي تؤثر في القيمة الإجمالية للإعلان الفائز، حان الوقت لنتعرف على ",
        "_linkBody": "أدوات عرض الإعلانات وتحسينها",
        "_postLinkBody": ".",
        "_link": "#/id/co-30",
        "_graphic": "adapt/css/assets/icon_nextPage.png",
        "_pageLevelProgress": {
            "_isEnabled": false
        }
    },
    {
        "_id": "c-90",
        "_parentId": "b-90",
        "_type": "component",
        "_component": "text",
        "_classes": "",
        "_layout": "full",
        "title": "",
        "displayTitle": "",
        "body": "هل تساءلت يومًا عن سبب انخفاض مرات عرض إعلانك؟ هل تريد عرض تقديرات عن الأداء المتوقع لعرض إعلاناتك؟ ما الذي يمكنك القيام به إذا لم تكن تجلب العدد الكافي من التحويلات؟ إذا سبق لك طرح أي من هذه الأسئلة، فإنك بلا شك سترغب في القراءة والتعرف على الأدوات التي نوفرها لمساعدتك في تحقيق نتائج أفضل لعرض إعلانك.",
        "instruction": "",
        "_pageLevelProgress": {
            "_isEnabled": false
        }
    },
    {
        "_id": "c-95",
        "_parentId": "b-90",
        "_type": "component",
        "_component": "text",
        "_classes": "",
        "_layout": "full",
        "title": "لمحة سريعة",
        "displayTitle": "لمحة سريعة",
        "body": "نعرض فيما يلي موجز مختصر عن أدوات عرض الإعلانات وتحسينها. <br><br><h2>رؤى العرض</h2>يمكنك استخدام هذه الأداة لفهم عرض إعلانك أو فهم أدائه. ويمكن أن تساعدك هذه المعلومات في تشخيص مشكلات العرض وتحسين النتائج. وستتلقى إشعارًا عند حدوث تقلبات كبيرة في الإنفاق أو النتائج أو التكلفة لكل نتيجة وستتمكن من الوصول إلى أدوات القياس التي يمكن أن تساعد في تفسير أسباب التغيرات المفاجئة والإجراء الذي يمكنك اتخاذه لإعادة الأمور إلى نصابها. <br>انتقل إلى <a href='#/id/c-100'>رؤى العرض</a>.   <br><br><h2>النتائج اليومية المقدرة</h2>تتنبأ هذه الأداة بالنتائج المحتملة في المزاد. وبهذه المعرفة، يمكنك تعديل ميزانيتك اليومية لعرض تنبؤات الوصول المحتمل لحملتك الإعلانية ونتائجها قبل إقرار الميزانية. كما تمنحك هذه الأداة إمكانية تحسين أداء المجموعة الإعلانية قبل وصول حملاتك الإعلانية إلى نهايتها حيث تستند تنبؤات النتائج اليومية المقدرة على الإعدادات الحالية للمجموعة الإعلانية مثل الاستهداف والميزانية. <br><a href='#/id/c-125'>الانتقال إلى النتائج اليومية المقدرة</a>. <br><br><h2>تحسين التحويل</h2>تم تصميم نموذج تحسين التحويل بحيث يعرض الإعلانات للأشخاص المرجح أن يتموا عملية التحويل، وتقديم عروض أسعار قوية للفوز بهؤلاء الأشخاص. إذا كانت مجموعتك الإعلانية لا تجلب عددًا كبيرًا من التحويلات، يمكنك المشاركة في تحسين النقر على الرابط مؤقتًا للسماح لفيسبوك بجمع بيانات أكثر عن الجمهور المرجح أن ينقر على مجموعتك الإعلانية المحسنة من أجل التحويلات. ومن المفترض أن يؤدي التحسين من أجل النقرات إلى مزيد من مرات العرض نظرًا لأن عدد الأشخاص الذين ينقرون على الإعلان أكبر من عدد الأشخاص الذين يتم تحويلهم. ومع عرض مجموعتك الإعلانية لمزيد من الأشخاص، يمكن للنظام أن يتعرف على المزيد من المعلومات عن الأشخاص الأكثر احتمالاً للتحويل نتيجة لإعلانك.<br>الانتقال إلى <a href='#/id/c-140'>تحسين التحويل</a>.<br><br><h2>فترة التحويل</h2> في حالة تحسين مجموعتك الإعلانية من أجل أحداث تحويل مثل تثبيت تطبيق وتنفيذ عملية شراء، يمكنك تحديد فترة تحويل للمساعدة على تحسين عرض إعلانك. <br>الانتقال إلى <a href='#/id/c-150'>فترة التحويل</a>.<br><br><h2>عرض ما بعد النقر</h2>للمساعدة على توفير تجربة إعلانية أفضل للأشخاص وتحقيق نتائج حقيقية للأنشطة التجارية، يأخذ فيسبوك أداء موقعك وسرعات الاتصال لدى الأشخاص في الحسبان في مزاد الإعلانات ومع نماذج العرض وذلك لتوفير تجربة أفضل في آخر الأخبار. <br>الانتقال إلى <a href='#/id/c-160'>عرض ما بعد النقر</a>.",
        "instruction": "",
        "_pageLevelProgress": {
            "_isEnabled": false
        }
    },
    {
        "_id": "c-100",
        "_parentId": "b-90",
        "_type": "component",
        "_component": "text",
        "_classes": "",
        "_layout": "full",
        "title": "رؤى العرض",
        "displayTitle": "رؤى العرض",
        "body": "يمكن استخدام رؤى العرض عندما تريد أخذ نظرة شاملة عن أداء مجموعتك الإعلانية. وتوفر أدوات قياس لوحة المعلومات بيانات وإرشادات تساعدك في تفسير التقلبات التي تحدث في الأداء والإجراء المناسب للتعامل معها. <br><br><h2>الوصول إلى رؤى العرض</h2>يمكنك الوصول إلى رؤى العرض من خلال أي مما يلي:<br><ul><li>الإشعارات المرسلة إليك في مدير الإعلانات وPower Editor عند وجود تغير مفاجئ في النتائج، أو الإنفاق، أو التكلفة لكل نتيجة في المجموعة الإعلانية؛ أو </li><li>رابط \"إظهار رؤى العرض\" والذي يظهر عند تمرير مؤشر الماوس فوق عمود العرض على مستوى المجموعة الإعلانية. في مدير الإعلانات أو Power Editor، انقر على اسم الحملة الإعلانية لتظهر كل المجموعات الإعلانية المرتبطة بها. ولاحظ أنه لا يمكنك الوصول إلى أدوات قياس رؤى العرض إلا للمجموعات الإعلانية النشطة التي كانت تعمل خلال آخر 7 أيام وحققت 500 مرة ظهور بحد أدنى بعد تشغيلها لمدة 5 على الأقل.</li><br><br><div><img src='course/en/images/06_optimization-tools/1delivery-insights-notification.png' height='25%' width='450px'></div><br><img src='course/en/images/06_optimization-tools/1delivery-insights.png' height='60%' width='1000px'><i>عند عرض المجموعات الإعلانات في مدير الإعلانات، ستتمكن الآن من تحديد المجموعات الإعلانية التي تعاني من تقلبات في العرض.</i>",
        "instruction": "",
        "_pageLevelProgress": {
            "_isEnabled": false
        }
    },
    {
        "_id": "c-115",
        "_parentId": "b-90",
        "_type": "component",
        "_component": "accordion",
        "_classes": "",
        "_layout": "full",
        "title": "",
        "displayTitle": "",
        "body": "<h2>فهم مشكلات تقلب العرض وإصلاحها</h2>عند الانتقال إلى لوحة معلومات رؤى العرض، يمكنك رؤية علامات التبويب \"سجل النشاطات\"، و\"تداخل المزادات\"، و\"مستوى تشبع الجمهور\". من هذه اللوحة، يمكنك فهم تأثير إعداد مجموعتك الإعلانية أو تأثير تراجع أدائها في عرض المجموعة الإعلانية بالإضافة إلى فهم التعديلات التي يمكنك تنفيذها.",
        "instruction": "",
        "_items": [{
                "title": "سجل النشاطات",
                "body": "يوضح النشاط الإجراءات التي تم اتخاذها بشأن مجموعة إعلانية بعينها، مثل \"تم تحديث حالة الإعلان\" و\"تم عرض الإعلان\".<br><br>تمثل الصورة التالية نموذجًا لشاشة سجل النشاطات.<br> <br><img src='course/en/images/06_optimization-tools/1delivery-insights-activity.png' height='100%' width='1000px'>"
            },
            {
                "title": "تداخل المزادات",
                "body": "يحدد تداخل المزادات المجموعات الإعلانية الأخرى في حسابك الإعلاني التي يوجد بها تداخل - على سبيل المثال، تداخل الجمهور عبر المجموعات الإعلانية. وقد يعتبر ارتفاع معدل التداخل هو السبب في مشكلات الأداء.<br><br>تمثل الصورة التالية نموذجًا لشاشة تداخل المزادات.<br><br> <img src='course/en/images/06_optimization-tools/1-delivery-insights-auctionoverlap.png' height='100%' width='1000px'>"
            },
            {
                "title": "مستوى تشبع الجمهور",
                "body": "يوفر مستوى تشبع الجمهور بيانات مثل النسبة المئوية لمرات الظهور اليومية الناتجة عن مشاهدة الأشخاص للمجموعة الإعلانية المعنية لأول مرة.<br><br>تمثل الصورة التالية نموذجًا لشاشة مستوى تشبع الجمهور. <br><img src='course/en/images/06_optimization-tools/1-delivery-insights-audience.png'height='70%' width='1000px'>  "
            }
        ]
    },
    {
        "_id": "c-120",
        "_parentId": "b-95",
        "_type": "component",
        "_component": "text",
        "_classes": "",
        "_layout": "full",
        "title": " ",
        "displayTitle": "",
        "body": "<a href='#/id/c-90'>الرجوع إلى الأعلى</a>",
        "instruction": "",
        "_pageLevelProgress": {
            "_isEnabled": false
        }
    },
    {
        "_id": "c-125",
        "_parentId": "b-95",
        "_type": "component",
        "_component": "text",
        "_classes": "",
        "_layout": "full",
        "title": " ",
        "displayTitle": "النتائج اليومية المقدرة",
        "body": "عند إنشاء مجموعة إعلانية أو تعديلها، يمكنك عرض النتائج اليومية المقدرة للأهداف المحددة استنادًا إلى التغييرات التي تجريها على الميزانية والجمهور ومبلغ عرض الأسعار والمواضع. وبفهم التأثير اليومي لأي تغييرات تجريها على الميزانية وعرض الأسعار والاستهداف والموضع، يمكنك اتخاذ قرارات مدروسة عن كيفية تحسين مجموعاتك الإعلانية لتحقيق أكبر أثر ممكن. <br><br>تتوفر التقديرات لأهداف التحسين المقترحة للأهداف الإعلانية التالية: <ul><li>التفاعل (التفاعل مع منشور الصفحة، تسجيلات الإعجاب بالصفحة، الاستجابات للمناسبات)</li><li>عمليات تثبيت التطبيقات</li><li>مشاهدات الفيديو</li><li>تجميع بيانات العملاء المحتملين</li><li>التحويلات</li><li>الزيارات</li></ul><br><br>في قسم الميزانية والجدول الزمني من مدير الإعلانات وPower Editor، توفر لك النتائج اليومية المقدرة طريق العرض التالية: <ul><li> منحنى الميزانية. ويمكنك استخدامه لضبط ميزانيتك ومعرفة النتائج اليومية المتوقعة في الوقت الفعلي عند تعديل المجموعات الإعلانية.</li><li>شريط التمرير. ويمكنك استخدامه لضبط الجمهور والمواضع ومبالغ عرض الأسعار والميزانية للتعرف في الوقت الفعلي على النتائج اليومية المتوقعة عند إنشاء المجموعات الإعلانية أو تعديلها.</li></ul><br><h2>تعرف على كيفية تأثير تغيير ميزانيتك في النتائج المتوقعة</h2>يمكن أن يساعدك منحنى الميزانية على فهم كيفية تغير النتائج المتوقعة مع عمليات مراجعة الميزانية. ومع إنشاء مجموعتك الإعلانية أو تعديلها، وتحديد ميزانيتك، اختر 'ميزانية يومية' وأدخل الاستثمار اليومي الذي تريده. وسترى أن منحنى النتائج اليومية المقدرة سيمنحك نتيجة متوقعة استنادًا إلى ما يتم تحسين حملتك الإعلانية لتحقيقه. وللحصول على وجهة نظر مختلفة، يمكنك اختيار \"الوصول\" بدلاً من النظر إلى النتائج. ويوضح لك الشريط المحيط بجانبي المنحنى نطاق النتائج المتوقعة. وكلما اتسعت الشرائط، قد تتباين تقديراتنا بشكل أكبر. <br><img src='course/en/images/06_optimization-tools/2-edr-budget.png'height='30%' width='650px'><br><br><h2>تعرف على كيفية تأثير إعدادات إعلانك في النتائج المتوقعة</h2> يعرض شريط التمرير حجم الجمهور المقدر بالإضافة إلى تقديرات الوصول اليومي والنتائج استنادًا إلى الإعدادات الحالية لمجموعتك الإعلانية، مثل الاستهداف والميزانية.<br><br> <img src='course/en/images/06_optimization-tools/2-edr.png'height='70%' width='300px'>  <br><br><h2>تجميع الخيوط معًا</h2>يوضح هذا الشكل كيف يمكنك استخدام النتائج اليومية المقدرة وأداة رؤى العرض معًا، بداية من إنشاء مجموعتك الإعلانية وصولاً إلى إجراء فحص للأداء. <img src='course/en/images/06_optimization-tools/2-ad-delivery-flow.png'height='80%' width='1000px'>     ",
        "instruction": "",
        "_pageLevelProgress": {
            "_isEnabled": true
        }
    },
    {
        "_id": "c-130",
        "_parentId": "b-95",
        "_type": "component",
        "_component": "text",
        "_classes": "",
        "_layout": "full",
        "title": "عندما تكون النتائج اليومية المقدرة مفيدة للغاية",
        "displayTitle": "",
        "body": "<hr><table> <tr><td><div style='max-width:225px;text-align:right;padding-right:0px;'><img src='course/en/images/tip.png' height='40%' width='250px'></div></td><td><div style='max-width:750px;text-align:right;padding-left:0px;'>تكون النتائج اليومية المقدرة مفيدة للحملات الإعلانية التي يتم تحسينها من أجل الإجراءات (على سبيل المثال: مشاهدات الفيديو والتحويلات وعمليات تثبيت التطبيقات). إذا كان هدف الحملة الإعلانية يتمثل في الوصول إلى الجمهور على نطاق واسع وكان التنبؤ بالسعر أمر مهم، يمكنك استخدام شريط تمرير الوصول اليومي المقدر لقياس العدد الفريد للأشخاص الذين ستصل إليهم في حملتك الإعلانية. بالنسبة للمعلنين الذين يسعون إلى التحسين من أجل الوصول، نوصي باستخدام أسلوب شراء الوصول وتكرار الظهور لهذه الأنواع من الحملات الإعلانية لزيادة التأثير لأقصى درجة بالنسبة لأهدافك. <br><br>لاحظ أنه مع عرض مجموعتك الإعلانية طوال المدة الزمنية المجدوّلة، ستساعد البيانات التراكمية فيسبوك على توفير دقة أكبر للتنبؤ بعدد النتائج المحتملة الإضافية التي يمكنك الحصول عليها في المزاد.</div></td></tr></table> <hr><br><a href='#/id/c-90'>الرجوع إلى الأعلى</a>",
        "instruction": "",
        "_pageLevelProgress": {
            "_isEnabled": true
        }
    },
    {
        "_id": "c-140",
        "_parentId": "b-95",
        "_type": "component",
        "_component": "text",
        "_classes": "",
        "_layout": "full",
        "title": "تحسين التحويل",
        "displayTitle": "تحسين التحويل",
        "body": "إذا كنت تريد زيادة الإجراءات في تطبيقك للهواتف المحمولة أو موقعك على الويب، فأنت تستخدم هذا التحسين على الأرجح.<br><br>إذ يتيح لك تحسين التحويل تحسين عرض إعلانك تحديدًا لتحقيق النتائج التي تهمك بعرض إعلاناتك للأشخاص المرجح أن يتموا عملية التحويل. ويجري نموذج تحسين التحويل لدينا تعديلات على عروض أسعار المعلنين ليتم عرض الإعلانات أمام الأشخاص المرجح أن يتموا عملية التحويل، وتقديم عروض أسعار قوية للفوز بهؤلاء الأشخاص.<br><br>وهي أداة مثالية لزيادة الإجراءات على مواقع الويب أو تطبيقات الهواتف المحمولة باستخدام بيكسل فيسبوك أو SDK على الترتيب. <br><br> <h2>مساعدة بشأن إعلانات التحويل ذات الأداء المنخفض</h2>إذا كانت مجموعتك الإعلانية التي يتم تحسينها من أجل التحويلات لا تجلب باستمرار الكثير من التحويلات وكنت قد حاولت بالفعل التحسين من أجل حدث يقع أعلى المسار في البيكسل / مجموعة SDK بشكل متكرر، يمكنك الاشتراك في ميزة تعمل <i>مؤقتًا </i>على التحسين من أجل النقرات على الرابط. <br><br> لنفترض أنك تحاول زيادة مبيعات منتج جديد بموقعك على الويب ولم تكن مجموعتك الإعلانية التي يتم تحسينها من أجل التحويلات تجلب الكثير من التحويلات بعد تشغيلها، عند الاشتراك في هذه الميزة، فإنك تسمح لفيسبوك بالتعرف على المزيد عن جمهورك عند عدم وجود بيانات تحويل كافية وذلك للتحسين من أجل حدث التحويل في بيكسل فيسبوك أو مجموعة SDK والذي يتم تحسين المجموعة الإعلانية لتحقيقه. ولأن النقرات أكثر شيوعًا من التحويلات، فإن الرجوع إلى تحسين النقرات سيوفر مرات عرض أكبر تجعلنا نتعرف على المزيد عن الأشخاص ضمن جمهورك المستهدف ممن يرجح إتمامهم لعملية التحويل نتيجة لإعلانك. <br><br> لاحظ خلال تلك الفترة أن متوسط تكلفة التحويل قد تكون أكبر من المعتاد لأننا نستخدم عرض الأسعار التلقائي للنقرات على الرابط.<br><br>توفر الميزة الخيارين التاليين: <ol><li>قياسي. تقوم بتعيين نقطة نهاية لإخبار فيسبوك بوقت إيقاف التحسين من أجل النقرات على الرابط. بعد 15 إلى 25 تحويلاً أو 1000 نقرة على الرابط أو 7 أيام (أيهم يحدث أولاً)، ينتهي التحسين من أجل النقرات على الرابط مباشرة. بعد ذلك، سيقتصر النظام على التحسين من أجل التحويلات، حتى في حالة عدم عثور النظام على ما العدد الكافي منها، وتوقف عرض المجموعة الإعلانية قبل إنفاق الميزانية. </li><li>موسع. تقوم بالتحسين من أجل النقرات على الرابط والتحويلات إلى أن تجلب المجموعة الإعلانية من 15 إلى 25 تحويلاً أو إلى أن يتم إنفاق الميزانية. وإذا لم تجلب المجموعة الإعلانية من 15 إلى 25 تحويلاً، فقد يتم إنفاق الميزانية بالكامل على الكثير من النقرات على الرابط والقليل من التحويلات.</li></ol><br><br> <img src='course/en/images/06_optimization-tools/3-conversion-optimization.png'height='70%' width='600px'><br><br><a href='#/id/c-90'>الرجوع إلى الأعلى</a>     ",
        "instruction": "",
        "_pageLevelProgress": {
            "_isEnabled": true
        }
    },

    {
        "_id": "c-150",
        "_parentId": "b-95",
        "_type": "component",
        "_component": "text",
        "_classes": "",
        "_layout": "full",
        "title": "فترة التحويل ",
        "displayTitle": "فترة التحويل",
        "body": "عند إنشاء مجموعة إعلانية يكون هدفها الإعلاني التحويلات أو عمليات تثبيت التطبيقات، سيظهر لك حقل \"فترة التحويل\" في قسم تحسين عرض الإعلان. ستساعدنا المدخلات التي تضيفها هنا على فهم نوع النتائج التي تشكل قيمة بالنسبة لك وتتيح لنا العثور على مزيد من هذه النتائج.<br><br> <h2>البيانات هي الأهم</h2> تتطلب فترة التحويل تحديد مقدار بيانات التحويل التي ينبغي علينا استخدامها لتحديد الجمهور الذي ينبغي أن نعرض له إعلاناتك. ستساعدنا هذه البيانات في التعرف على سمات الأشخاص الذين يكملون عملية التحويل ضمن الفترة المحددة بحيث يمكننا العثور على مزيد من الأشخاص المشابهين لهم.<br><br> ولأن العديد من عمليات التحويل الناتجة عن إعلانات فيسبوك تحدث بعد <i>مشاهدة</i> الأشخاص لهذه الإعلانات - وليس فقط النقر عليها - فقد صممت هذه الميزة للتحسين من أجل التحويلات الناتجة عن النقرات أو مرات الظهور أو الاثنين معًا. لذلك، ستخبرنا مدخلاتك لفترات التحويل بما يلي: <ul><li> الإجراء (الإجراءات) التي تؤدي إلى حدوث التحويلات: هل ينقر معظم الأشخاص الذين أكملوا عملية التحويل على الإعلان أم يشاهدونه فقط؟ أم كلا الأمرين؟ </li><li>كم يستغرق الأمر عادة كي يتم تحويل الأشخاص بعد مشاهدة الإعلان أو النقر عليه؟ خلال يوم أم سبعة أيام؟</li></ul><br><br> نطلب منك إدخال هذه المعلومة حتى نتعلم من نقاط البيانات الصحيحة. لهذا السبب، لن نستعين ببيانات التحويلات التي تحدث خارج الفترة التي حددتها لتحسين عرض إعلاناتك. نحاول تحديد عمليات التحويل التي تحدث نتيجة لإعلانك وعزلها عن عمليات التحويل التي ليس لها علاقة سببية قوية مع عمليات التحويل التي تراقبها.<img src='course/en/images/06_optimization-tools/3-conversion-window.png'height='70%' width='600px'> <br><br><h2>اختيار فترة تحويل</h2>بالنسبة لأحداث التحويل التي تتطلب قدرًا كبيرًا من التفكير قبل إتمامها، مثل شراء كنبة بمبلغ 1000 دولار، قد نتوقع فترة تحويل أطول مقارنة بأحداث تحويل تنطوي على القليل من المخاطرة، مثل تثبيت الأشخاص لتطبيق هاتف محمول سعره 5 دولارات. <br><br> تذكر ضرورة اختيار فترة التحويل استنادًا إلى نوع التحويل الذي يشكل أهمية بالنسبة لك والذي تريد قياسه. يحتاج فيسبوك إلى 15 إلى 25 تحويلاً لكل مجموعة إعلانية أسبوعيًا ليتمكن من تحسين عرض المجموعة الإعلانية. وإذا لم تتمكن من الحصول على هذا العدد، فإننا نوصي باختيار نتيجة أكثر شيوعًا أو اختيار فترة تحويل أطول بشكل مناسب.<br><br> قد ترغب في اختبار فترات تحويل مختلفة لمعرفة مدى حدوث تحسن ملموس مع فترة تحويل دون أخرى. أو قد تفعل أكثر من ذلك باختبار توليفات مختلفة من فترات التحويل، وأحداث التحويل، وعروض الأسعار، والميزانيات لمعرفة أفضل توليفة تناسب نشاطك التجاري.<br><br> <h2>محاذاة فترة التحويل مع فترة الإسناد</h2> قد تظهر عمليات التحويل التي تتم خارج فترة التحويل في تقاريرك اعتمادًا على <a href='https://www.facebook.com/business/help/www/458681590974355?helpref=faq_content' target='_blank'>فترة الإسناد</a>. ونحن نوصي بمحاذاة فترة التحويل مع فترة الإسناد لأقرب مستوى ممكن لفهم مدى إسهام إعلانات فيسبوك في النتائج التي تحققها.<br><br><a href='#/id/c-90'>الرجوع إلى الأعلى</a>     ",
        "instruction": "",
        "_pageLevelProgress": {
            "_isEnabled": true
        }
    },
    {
        "_id": "c-160",
        "_parentId": "b-95",
        "_type": "component",
        "_component": "text",
        "_classes": "",
        "_layout": "full",
        "title": "عرض ما بعد النقر ",
        "displayTitle": "عرض ما بعد النقر",
        "body": "يغادر ما يصل إلى 40% من زوار مواقع الويب أي موقع به تأخير يصل إلى ثلاث ثوانٍ. وهو أمر غير مفاجئ حيث يغادر الكثير منا مواقع الويب عندما لا يتم تحميلها على الفور. <br><br> وللمساعدة على توفير تجربة إعلانية أفضل للأشخاص وتحقيق نتائج حقيقية للأنشطة التجارية، يأخذ فيسبوك أداء موقع الويب في الحسبان في مزاد الإعلانات والعرض وذلك لتوفير تجربة أفضل في آخر الأخبار.<br><br> يعني ذلك أن نظام العرض لدينا يأخذ في الحسبان أداء موقع النشاط التجاري على الويب جنبًا إلى جنب مع سرعة اتصال الإنترنت لدى الشخص المستهدف. سنعرض الإعلانات للأشخاص عندما يكون المحتوى مهمًا بالنسبة لهم وعندما يساعد اتصالهم بالإنترنت على سرعة تحميل المحتوى الذي يظهر بعد النقر.<br><br> قد يشهد المعلنون الذين تحقق مواقعهم على الويب سرعة في الأداء معدلات نقر مرتفعة مع جماهير معينة وبتكلفة منخفضة. بينما قد يحتاج المعلنون الذين يعانون من بطء أداء مواقعهم على الويب إلى تقديم عروض أسعار أعلى للوصول إلى جماهير معينة من المستخدمين الذين تقل جودة اتصالهم بالإنترنت (على سبيل المثال: مستخدمي اتصال الجيل الثاني).<br><br><a href='#/id/c-90'>الرجوع إلى الأعلى</a>     ",
        "instruction": "",
        "_pageLevelProgress": {
            "_isEnabled": true
        }
    },
    {
        "_id": "c-170",
        "_parentId": "b-190",
        "_type": "component",
        "_component": "co-jump",
        "_classes": "color-test",
        "_preLinkBody": "تناولنا العديد من الموضوعات في هذه الدورة التدريبية. والآن سنتناول ",
        "_linkBody": "الملخص",
        "_postLinkBody": ".",
        "_link": "#/id/co-35",
        "_graphic": "adapt/css/assets/icon_nextPage.png",
        "_pageLevelProgress": {
            "_isEnabled": false
        }
    },
    {
        "_id": "c-180",
        "_parentId": "b-200",
        "_type": "component",
        "_component": "text",
        "_classes": "",
        "_layout": "full",
        "title": "",
        "displayTitle": "",
        "body": "نتمنى أن تكون قد كوّنت فهمًا أفضل عن المزادات الإعلانية على فيسبوك، بما في ذلك كيفية تصميمه لزيادة القيمة التي يحققها المعلن لأقصى درجة وتحسين تجربة المستخدمين على فيسبوك، وInstagram وAudience Network من خلال عرض أكثر الإعلانات ملاءمة لهم وإثارة لاهتمامهم.",
        "instruction": "",
        "_pageLevelProgress": {
            "_isEnabled": false
        }
    },
    {
        "_id": "c-190",
        "_parentId": "b-200",
        "_type": "component",
        "_component": "text",
        "_classes": "",
        "_layout": "full",
        "title": "عائد الاستثمار",
        "displayTitle": "",
        "body": "أهم النقاط:<br><br><ul><li>تم تصميم المزاد الإعلاني على فيسبوك ليضمن:<ul><li>قدرة المعلنين على تحقيق أقصى عائد على الاستثمار عند تقديم عرض أسعار يعكس القيمة الحقيقية التي يحددونها للنتيجة المرجوة.</li><li>رؤية الأشخاص للإعلانات التي تكون ملاءمة ومهمة بالنسبة لهم.</li><li>وصول المعلنين للأشخاص المرجح تفاعلهم إيجابيًا مع الإعلانات.</li></ul><li>لا يعتمد أداؤك في المزاد على عرض أسعارك فقط، ولكن أيضًا على النتائج المتوقعة بالنسبة لأهداف التحسين التي تنشدها، ومدى ملاءمة الإعلان للأشخاص ضمن جمهورك المستهدف. تحدد هذه العوامل معًا عرض الأسعار الإجمالي الذي نستخدمه لإدخال إعلانك إلى المزاد.</li><li>يتيح توزيع الميزانية لفيسبوك ضبط عروض أسعارك ديناميكيًا لضمان ثبات عرض الإعلانات طوال مدة حملتك الإعلانية.</li><li>كلما كانت ملاءمة الإعلان أفضل، انخفضت التكلفة لكل هدف.</li><li>نوفر مجموعة كاملة من الأدوات لمساعدتك في تحسين نتائج العرض. وتشتمل على:<ul><li><i>رؤى العرض</i> لمساعدتك في فهم عرض الإعلان وأدائه واكتشاف أي مشكلات وإصلاحها.</li><li><i>النتائج اليومية المقدرة</i> لمساعدتك في التعرف مسبقًا على النتائج المحتملة التي قد تراها في المزاد حتى يمكنك إجراء التعديلات اللازمة على بعض المدخلات مثل ميزانيتك اليومية.</li><li><i>تحسين التحويل</i> لعرض الإعلانات للأشخاص المرجح أن يكملوا عملية التحويل. علاوة على ذلك، إذا كانت مجموعتك الإعلانية لا تجلب عددًا كبيرًا من التحويلات، يمكنك المشاركة في تحسين النقر على الرابط مؤقتًا للسماح لفيسبوك بجمع بيانات أكثر عن الجمهور المرجح أن ينقر على مجموعتك الإعلانية المحسنة من أجل التحويلات. </li><li><i>فترة التحويل</i> لتوجيه فيسبوك إلى النظر في بيانات التحويلات التي تقع ضمن فترة التحويل.</li><li><i>عرض ما بعد النقر</i> للمساعدة على توفير تجارب إعلانية أفضل للأشخاص وتحقيق نتائج حقيقية للأنشطة التجارية. يأخذ فيسبوك أداء موقعك وسرعات الاتصال لدى الأشخاص في الحسبان في مزاد الإعلانات ومع نماذج العرض وذلك لتوفير تجربة أفضل في آخر الأخبار.</li></ul></li></ul><br><br>لا تتردد في الرجوع إلى أي من موضوعات الدورة التدريبية لضمان الوصول إلى فهم كامل لعملية مزاد الإعلانات. ",
        "instruction": "",
        "_pageLevelProgress": {
            "_isEnabled": true
        }
    },
    {
        "_id": "c-200",
        "_parentId": "b-200",
        "_type": "component",
        "_component": "co-jump",
        "_classes": "color-test",
        "_autoComplete": true,
        "_preLinkBody": "انقر على الزر التالي لإنهاء هذه الدورة التدريبية. ملاحظة: <a href='#'>انقر هنا</a> للتحقق من اكتمال أشرطة الحالة لكل وحدة.<br>",
        "_linkBody": "<div style = 'text-align:center;padding:8px;'><button class='buttons-action'><b>لقد أنهيت هذه الدورة التدريبية</b></button></div><br> ",
        "_postLinkBody": "",
        "_link": "",
        "_pageLevelProgress": {
            "_isEnabled": false
        }
    }
]
